{
  "featureextraction": {
    "entryname": "Feature Extraction GUI",
    "appid": 271,
    "contenttype": "text/html",
    "extension": ".html"
  },
  "synapticeventsfitting": {
    "entryname": "Fitting GUI",
    "appid": 175,
    "contenttype": "x-ipynb+json",
    "extension": ".ipynb",
    "file": "776c0ac0-f597-4751-b18c-fb1a306c1a44"
  },
  "synapticeventsfitting(user'smodel)": {
    "entryname": "Fitting GUI with user's model",
    "appid": 175,
    "contenttype": "x-ipynb+json",
    "extension": ".ipynb",
    "file": "ef465189-7e49-4d75-8d0d-fb9f1dd3ffea"
  },
  "synapticeventsfitting(user'sdata)": {
    "entryname": "Fitting GUI with user's data",
    "appid": 175,
    "contenttype": "x-ipynb+json",
    "extension": ".ipynb",
    "file": "0fff09f5-f662-466c-b56f-d9426eae40e4"
  },
  "jupyternotebook": {
    "entryname": "Jupyter Notebook",
    "appid": 175,
    "contenttype": "x-ipynb+json",
    "extension": ".ipynb"
  },
  "cellsplacementrathippocampusca1": {
    "entryname": "Cell Placement Hippocampus",
    "appid": 175,
    "contenttype": "x-ipynb+json",
    "extension": ".ipynb",
    "file": "dcb142a0-68e5-4881-ad61-345d463207ef"
  },
  "cellsplacementratcerebellumvolume": {
    "entryname": "Cell Placement Cerebellum",
    "appid": 175,
    "contenttype": "x-ipynb+json",
    "extension": ".ipynb",
    "file": "67555a8f-70f6-4b81-9f2b-c343deb0779c"
  },
  "connectomeratcerebellumvolume": {
    "children": [
      {
        "entryname": "Connectome Cerebellum",
        "appid": 175,
        "contenttype": "x-ipynb+json",
        "extension": ".ipynb",
        "file": "5f395bc1-7b31-4393-b64f-76d8e76b3851"
      },
      {
        "entryname": "800_800_150_gocconv50_June2014",
        "appid": 175,
        "contenttype": "x-npy",
        "extension": ".npy",
        "file": "122e22a6-d4cc-4d94-aef5-cfb9a48afcc9",
        "justcopy": true
      }
    ]
  },
  "buildyourownsinglecellmodelusinghbpdata": {
    "children": [
      {
        "entryname": "BluPyOpt Browse All",
        "appid": 175,
        "contenttype": "x-ipynb+json",
        "extension": ".ipynb",
        "file": "45380bd7-3a0a-4cbf-9edc-550d445ac22b"
      },
      {
        "entryname": "BluePyOpt Analysis",
        "appid": 175,
        "contenttype": "x-ipynb+json",
        "extension": ".ipynb",
        "file": "22f851ce-f667-4b59-8750-1f06a16d0a0f"
      },
      {
        "entryname": "NSG Job Manager",
        "appid": 175,
        "contenttype": "x-ipynb+json",
        "extension": ".ipynb",
        "file": "7860e2ae-a4e7-439a-a640-856729e52bce"
      }
    ]
  },
  "rebuildanexistingsinglecellmodel": {
    "children": [
      {
        "entryname": "BluePyOpt One",
        "appid": 175,
        "contenttype": "x-ipynb+json",
        "extension": ".ipynb",
        "file": "38490b1d-c988-4991-a57a-02eabd286f7b"
      },
      {
        "entryname": "BluePyOpt Analysis",
        "appid": 175,
        "contenttype": "x-ipynb+json",
        "extension": ".ipynb",
        "file": "22f851ce-f667-4b59-8750-1f06a16d0a0f"
      },
      {
        "entryname": "NSG Job Manager",
        "appid": 175,
        "contenttype": "x-ipynb+json",
        "extension": ".ipynb",
        "file": "7860e2ae-a4e7-439a-a640-856729e52bce"
      }
    ]
  },
  "morphologyanalysis": {
    "entryname": "Morphology Analysis",
    "appid": 175,
    "contenttype": "x-ipynb+json",
    "extension": ".ipynb",
    "file": "915417d1-359f-4eab-bcb1-a0881dea8d7d"
  },
  "reconstructionandsimulationofneuraltissuei:neuronsandsynapses": {
    "children": [
      {
        "entryname": "Ball and Stick",
        "appid": 175,
        "contenttype": "x-ipynb+json",
        "extension": ".ipynb",
        "file": "96ef97ec-370b-401d-9e20-1aa72066b8f4"
      },
      {
        "entryname": "segments",
        "appid": 175,
        "contenttype": "image/jpeg",
        "extension": ".jpg",
        "file": "22f851ce-f667-4b59-8750-1f06a16d0a0f",
        "justcopy": true
      }
    ]
  }
}
